module gitlab.com/bosamatheus/jokes

go 1.16

require (
	github.com/gofiber/fiber/v2 v2.15.0
	github.com/mattn/go-isatty v0.0.13 // indirect
	github.com/mattn/go-runewidth v0.0.13 // indirect
	github.com/mgechev/revive v1.0.9 // indirect
	golang.org/x/sys v0.0.0-20210630005230-0f9fa26af87c // indirect
	golang.org/x/tools v0.1.5 // indirect
)
